{
    "__default__":
    {
        "time": "0:10:00",
        "N": "1",
        "c": "20",
        "C": "cstd01",
        "partition": "short",
        "mem-per-cpu": "62000",
        "mail-user": "uriel-elias.wiebelitz@tu-dortmund.de",
        "mail-type": "FAIL"
    },
    
    "compile":
    {
        "time": "00:10:00"
    },
}
