{
"out_path": "/home/uriel/Wichtige_Daten/Bildung/Studium/MasterModule/Masterarbeit/Implementierung/RAMLatency/memorylookupbench/Benchmark/",
"build_path": "/home/uriel/Wichtige_Daten/Bildung/Studium/MasterModule/Masterarbeit/Implementierung/RAMLatency/memorylookupbench/build/",
"src_path": "/home/uriel/Wichtige_Daten/Bildung/Studium/MasterModule/Masterarbeit/Implementierung/RAMLatency/memorylookupbench/"
}
